{
    "positive" : {
        "psitive1" : "when user hit api using valid data then user got response 200 / OK"
    },
    "negative" : {
        "negative1" : "when user hit api using invalid data then user got response error"
    }
}
